{
  "project_info": {
    "project_number": "679859246944",
    "firebase_url": "https://foodon-base.firebaseio.com",
    "project_id": "foodon-base",
    "storage_bucket": "foodon-base.appspot.com"
  },
  "client": [
    {
      "client_info": {
        "mobilesdk_app_id": "1:679859246944:android:d988f078c69f965a",
        "android_client_info": {
          "package_name": "com.foodon_base"
        }
      },
      "oauth_client": [
        {
          "client_id": "679859246944-vmk65k1uq03o10b68go5qhhqt8oe340q.apps.googleusercontent.com",
          "client_type": 3
        }
      ],
      "api_key": [
        {
          "current_key": "AIzaSyDn2q3f6cFjuBw5EMByLCbAxrzVWJGeGm4"
        }
      ],
      "services": {
        "appinvite_service": {
          "other_platform_oauth_client": [
            {
              "client_id": "679859246944-vmk65k1uq03o10b68go5qhhqt8oe340q.apps.googleusercontent.com",
              "client_type": 3
            },
            {
              "client_id": "679859246944-8qp0epdcqc57ob8arjsh1d3hph1leff9.apps.googleusercontent.com",
              "client_type": 2,
              "ios_info": {
                "bundle_id": "org.reactjs.native.example.foodon-base"
              }
            }
          ]
        }
      }
    }
  ],
  "configuration_version": "1"
}